{
  "_embedded": {
    "bitstreamformats": [
      {
        "shortDescription": "Unknown",
        "description": "Unknown data format",
        "mimetype": "application/octet-stream",
        "supportLevel": 0,
        "internal": false,
        "extensions": null,
        "type": "bitstreamformat",
        "_links": {
          "self": {
            "href": "http://localhost:8080/dspace-spring-rest/api/core/bitstreamformats/1"
          }
        }
      },
      {
        "shortDescription": "License",
        "description": "Item-specific license agreed upon to submission",
        "mimetype": "text/plain; charset=utf-8",
        "supportLevel": 0,
        "internal": true,
        "extensions": null,
        "type": "bitstreamformat",
        "_links": {
          "self": {
            "href": "http://localhost:8080/dspace-spring-rest/api/core/bitstreamformats/2"
          }
        }
      },
      {
        "shortDescription": "CC License",
        "description": "Item-specific Creative Commons license agreed upon to submission",
        "mimetype": "text/html; charset=utf-8",
        "supportLevel": 0,
        "internal": true,
        "extensions": null,
        "type": "bitstreamformat",
        "_links": {
          "self": {
            "href": "http://localhost:8080/dspace-spring-rest/api/core/bitstreamformats/3"
          }
        }
      },
      {
        "shortDescription": "Adobe PDF",
        "description": "Adobe Portable Document Format",
        "mimetype": "application/pdf",
        "supportLevel": 0,
        "internal": false,
        "extensions": null,
        "type": "bitstreamformat",
        "_links": {
          "self": {
            "href": "http://localhost:8080/dspace-spring-rest/api/core/bitstreamformats/4"
          }
        }
      },
      {
        "shortDescription": "XML",
        "description": "Extensible Markup Language",
        "mimetype": "text/xml",
        "supportLevel": 0,
        "internal": false,
        "extensions": null,
        "type": "bitstreamformat",
        "_links": {
          "self": {
            "href": "http://localhost:8080/dspace-spring-rest/api/core/bitstreamformats/5"
          }
        }
      }
    ]
  },
  "_links": {
    "first": {
      "href": "http://localhost:8080/dspace-spring-rest/api/core/bitstreamformats?page=0&size=5"
    },
    "self": {
      "href": "http://localhost:8080/dspace-spring-rest/api/core/bitstreamformats"
    },
    "next": {
      "href": "http://localhost:8080/dspace-spring-rest/api/core/bitstreamformats?page=1&size=5"
    },
    "last": {
      "href": "http://localhost:8080/dspace-spring-rest/api/core/bitstreamformats?page=14&size=5"
    }
  },
  "page": {
    "size": 5,
    "totalElements": 75,
    "totalPages": 15,
    "number": 0
  }
}