{
  "_links": {
       "self": { "href": "/collections{&sort,page,size}", "templated": true },
       "next": { "href": "/collections?page=2&size=2{&sort}", "templated": true },
       "find": { "href": "/collections/{id}", "templated": true }
     },
  "_embedded": [
    {
      "_links": {
           "self": { "href": "/collections/3" },           
           "collections": { "href": "/collections/3/collections" },
           "items": { "href": "/collections/3/items" }
      },
      "id": "3",
      "name": "Community of Scholarly Communication",
      "handle": "123456789/3",
      "metadata": [
        { "key": "dc.rights", "value": "<p>© 2005-2016 JOHN DOE SOME RIGHTS RESERVED</p>", "language": null },
        { "key": "dc.description", "value": "<p class='lead'>An introductory text dolor sit amet, consectetur adipiscing elit. Duis laoreet lorem erat, eget auctor est ultrices quis. Nullam ac tincidunt quam. In nec nisl odio. In egestas aliquam tincidunt.</p>\r\n<p>Integer vitae diam id dolor pharetra dignissim in sed enim. Vivamus pulvinar tristique sem a iaculis. Aenean ultricies dui vel facilisis laoreet. Integer porta erat eu ultrices rhoncus. Sed condimentum malesuada ex sit amet ullamcorper. Morbi a ipsum dolor. Vivamus interdum eget lacus ut fermentum.</p>", "language": null },
        { "key": "dc.description.abstract", "value": "A Community for Scholarly Collections", "language": null },
        { "key": "dc.description.tableofcontents", "value": "<p>In this community, we have the Test Collection and Another Test Collection.</p>", "language": null }
      ]
    },
    {
      "_links": {
           "self": { "href": "/collections/9e32a2e2-6b91-4236-a361-995ccdc14c60" },
           "collections": { "href": "/collections/9e32a2e2-6b91-4236-a361-995ccdc14c60/collections" },
           "items": { "href": "/collections/9e32a2e2-6b91-4236-a361-995ccdc14c60/items" }
      },
      "id": "9e32a2e2-6b91-4236-a361-995ccdc14c60",
      "name": "A Test Collection",
      "handle": "123456789/5179",
      "metadata": [
        { "key": "dc.rights", "value": "<p>© 2005-2016 JOHN DOE SOME RIGHTS RESERVED</p>", "language": null },
        { "key": "dc.description", "value": "<p class='lead'>An introductory text dolor sit amet, consectetur adipiscing elit. Duis laoreet lorem erat, eget auctor est ultrices quis. Nullam ac tincidunt quam. In nec nisl odio. In egestas aliquam tincidunt.</p>\r\n<p>Integer vitae diam id dolor pharetra dignissim in sed enim. Vivamus pulvinar tristique sem a iaculis. Aenean ultricies dui vel facilisis laoreet. Integer porta erat eu ultrices rhoncus. Sed condimentum malesuada ex sit amet ullamcorper. Morbi a ipsum dolor. Vivamus interdum eget lacus ut fermentum.</p>", "language": null },
        { "key": "dc.description.abstract", "value": "This Collection is in the Community of Scholarly Communication.  It contains 6 items, and shares two items with Another Test Collection.", "language": null },
        { "key": "dc.description.tableofcontents", "value": "<p>Some news sed condimentum malesuada ex sit amet ullamcorper. Morbi a ipsum dolor. Vivamus interdum eget lacus ut fermentum. Donec sed ultricies erat, nec sollicitudin mauris. Duis varius nulla quis quam vulputate, at hendrerit turpis rutrum. Integer nec facilisis sapien. Fusce fringilla malesuada lectus id pulvinar. Vestibulum ante ipsum primis in faucibus orci luctus et ultrices posuere cubilia Curae</p>", "language": null }
      ]
    }
  ],
  "page": {
     "size" : 2,
     "totalElements" : 5,
     "totalPages" : 3,
     "number" : 1
  }
}
