{
  "_links": {
       "self": { "href": "/items{&sort,page,size}", "templated": true },
       "find": { "href": "/items/{id}", "templated": true }
     },
  "_embedded": [
    {
      "_links": {
             "self": { "href": "/items/5" },
             "collections":{ "href": "/items/5/collections" },
             "bundles": { "href": "/items/5/bundles" }
      },    
      "id": "5",
      "name": "Scholarly Work V",
      "handle": "123456789/8875",
      "lastModified": "2016-10-14 10:41:12.886",
      "isArchived": true,
      "isWithdrawn": false,
      "metadata": [
        {
          "key": "dc.contributor.author",
          "value": "Antelman, Kristin",
          "language": "en"
        },
        {
          "key": "dc.date.accessioned",
          "value": "2016-10-14T10:41:13Z",
          "language": null
        },
        {
          "key": "dc.date.available",
          "value": "2016-10-14T10:41:13Z",
          "language": null
        },
        {
          "key": "dc.date.issued",
          "value": "2004-09-01",
          "language": "en"
        },
        {
          "key": "dc.identifier.uri",
          "value": "http://hdl.handle.net/123456789/8875",
          "language": null
        },
        {
          "key": "dc.description.abstract",
          "value": "Although many authors believe that their work has a greater research impact if it is freely available, studies to demonstrate that impact are few. This study looks at articles in four disciplines at varying stages of adoption of open access—philosophy, political science, electrical and electronic engineering and mathematics—to see whether they have a greater impact as measured by citations in the ISI Web of Science database when their authors make them freely available on the Internet. The finding is that, across all four disciplines, freely available articles do have a greater research impact. Shedding light on this category of open access reveals that scholars in diverse disciplines are adopting open-access practices and being rewarded for it.",
          "language": "en"
        },
        {
          "key": "dc.publisher",
          "value": "College & Research Libraries News",
          "language": "en"
        },
        {
          "key": "dc.subject",
          "value": "Publishing",
          "language": "en"
        },
        {
          "key": "dc.subject",
          "value": "Intellectual Property",
          "language": "en"
        },
        {
          "key": "dc.subject",
          "value": "Open Access",
          "language": "en"
        },
        {
          "key": "dc.title",
          "value": "Do Open-Access Articles Have a Greater Research Impact?",
          "language": "en"
        },
        {
          "key": "dc.type",
          "value": "(not specified)",
          "language": "en"
        }
      ]
    },
    {
      "_links": {
             "self": { "href": "/items/6" },
             "collections": { "href": "/items/6/collections" },
             "bundles": { "href": "/items/6/bundles" }
      },
      "id": "6",
      "name": "Scholarly Work VI",
      "handle": "123456789/9976",
      "lastModified": "2016-05-27 03:00:20.063",
      "isArchived": true,
      "isWithdrawn": false,
      "metadata": [
        {
          "key": "dc.contributor.author",
          "value": "John Doe",
          "language": "en"
        },
        {
          "key": "dc.date.accessioned",
          "value": "2016-05-27T07:45:04Z",
          "language": null
        },
        {
          "key": "dc.date.available",
          "value": "2016-05-27T07:45:04Z",
          "language": null
        },
        {
          "key": "dc.date.issued",
          "value": "2016-05-27",
          "language": "en"
        },
        {
          "key": "dc.identifier.uri",
          "value": "http://hdl.handle.net/123456789/9976",
          "language": null
        },
        {
          "key": "dc.description.abstract",
          "value": "Lorem ipsum dolor sit amet, consectetur adipiscing elit. Maecenas lacus velit, lacinia eu ultrices nec, auctor in sem. Donec interdum convallis ornare. Aliquam et tortor risus. Praesent ut feugiat eros, eu consequat nibh. Morbi id quam eu mi pellentesque consequat vel vitae sem. Praesent sed velit ullamcorper, efficitur odio non, aliquet urna. Cum sociis natoque penatibus et magnis dis parturient montes, nascetur ridiculus mus. Pellentesque eu placerat urna. Interdum et malesuada fames ac ante ipsum primis in faucibus. Nulla non aliquet mauris. Nulla quis posuere lorem. Pellentesque tempus maximus ipsum ac pretium. Nunc hendrerit tempus sem, vitae luctus erat consectetur vestibulum. Nulla sodales felis in dictum sagittis.\n\nNullam porta magna quis magna vulputate elementum. Pellentesque dictum lorem id nisl tincidunt condimentum. Sed est dolor, dapibus sit amet augue at, malesuada cursus quam. Pellentesque elit felis, malesuada dictum congue tristique, iaculis euismod ligula. Donec dignissim dolor eu lacus pulvinar porttitor. Sed quis semper augue, dictum sollicitudin eros. \n\nMauris congue lectus at turpis viverra scelerisque. Praesent at urna rhoncus, condimentum odio ac, sagittis libero. Nulla aliquam ornare bibendum. Duis quis ornare urna. Suspendisse semper tincidunt neque nec consequat. Sed enim diam, mollis eu neque vitae, lacinia varius risus. Fusce nec sem tempor, efficitur lectus sed, porta sem. Pellentesque sollicitudin ut dui vitae malesuada.",
          "language": "en"
        },
        {
          "key": "dc.title",
          "value": "Another Test Item",
          "language": "en"
        },
        {
          "key": "dc.type",
          "value": "(not specified)",
          "language": "en"
        }
      ]
    }
  ],
    "page": {
     "size" : 2,
     "totalElements" : 6,
     "totalPages" : 3,
     "number" : 2
  }
}
