{
  "_links": {
       "self": { "href": "/bitstreams{&sort,page,size}", "templated": true },
       "find": { "href": "/bitstreams/{id}", "templated": true }
     },
  "_embedded": [
    {
      "_links": {
             "self": { "href": "/bitstreams/6-1-1" },
             "bundle": { "href": "/bundles/6-1" },
             "retrieve": {"href": "/bitstreams/6-1-1/retrieve"}
      },
      "id": "6-1-1",
      "name": "scholarly-document-6.pdf",
      "size": 389627,
      "checksum": {
        "value": "fc25f9c80012ec0b9e6a17a3e2754522",
        "algorithm": "MD5"
      },
      "metadata": [
        { "key": "dc.title", "value": "scholarly-document-5.pdf", "language": null },
        { "key": "dc.description", "value": "Journal Article", "language": "en" }
      ],
      "format": "Adobe PDF",
      "mimetype": "application/pdf"
    },
    {
      "_links": {
             "self": { "href": "/bitstreams/6-2-1" },
             "bundle": { "href": "/bundles/6-2" },
             "retrieve": {"href": "/bitstreams/6-2-1/retrieve"}
      },
      "id": "5-2-1",
      "name": "scholarly-document-6.pdf.jpg",
      "size": 85626,
      "checksum": {
        "value": "bb2589d69475cf63f0c4d9444db87e66",
        "algorithm": "MD5"
      },
      "metadata": [
        { "key": "dc.title", "value": "scholarly-document-6.pdf.jpg", "language": null },
        { "key": "dc.description", "value": "Generated Thumbnail", "language": "en" }
      ],
      "format": "JPEG",
      "mimetype": "image/jpeg"      
    }
  ],
  "page": {
     "size" : 2,
     "totalElements" : 12,
     "totalPages" : 3,
     "number" : 2
  }
}
