{
  "_links": {
       "self": { "href": "/bundles{&sort,page,size}", "templated": true },
       "next": { "href": "/bundles?page=1&size=5{&sort}", "templated": true },
       "find": { "href": "/bundles/{id}", "templated": true }
     },
  "_embedded": [
    {
      "_links": {
             "self": { "href": "/bundles/35e0606d-5e18-4f9c-aa61-74fc751cc3f9" },
             "items": { "href": "/bundles/35e0606d-5e18-4f9c-aa61-74fc751cc3f9/items" },
             "bitstreams": {"href": "/bundles/35e0606d-5e18-4f9c-aa61-74fc751cc3f9/bitstreams"},
             "primaryBitstream": {"href": "/bundles/35e0606d-5e18-4f9c-aa61-74fc751cc3f9/primaryBitstream"}
      },
      "id": "35e0606d-5e18-4f9c-aa61-74fc751cc3f9",
      "name": "ORIGINAL",
      "metadata": [
        { "key": "dc.title", "value": "ORIGINAL", "language": "en" }
      ]
    },
    {
      "_links": {
         "self": { "href": "/bundles/a469c57a-abcf-45c3-83e4-b187ebd708fd" },
         "items": { "href": "/bundles/a469c57a-abcf-45c3-83e4-b187ebd708fd/items" },
         "bitstreams": {"href": "/bundles/a469c57a-abcf-45c3-83e4-b187ebd708fd/bitstreams"},
         "primaryBitstream": {"href": "/bundles/a469c57a-abcf-45c3-83e4-b187ebd708fd/primaryBitstream"}
      },
      "id": "a469c57a-abcf-45c3-83e4-b187ebd708fd",
      "name": "THUMBNAIL",
      "metadata": [
        { "key": "dc.title", "value": "THUMBNAIL", "language": "en" }
      ]
    },
    {
      "_links": {
             "self": { "href": "/bundles/35e0606d-5e18-4f9c-aa61-74fc751cc3f9" },
             "items": { "href": "/bundles/35e0606d-5e18-4f9c-aa61-74fc751cc3f9/items" },
             "bitstreams": {"href": "/bundles/35e0606d-5e18-4f9c-aa61-74fc751cc3f9/bitstreams"},
             "primaryBitstream": {"href": "/bundles/35e0606d-5e18-4f9c-aa61-74fc751cc3f9/primaryBitstreams"}
      },
      "id": "35e0606d-5e18-4f9c-aa61-74fc751cc3f9",
      "name": "ORIGINAL",
      "metadata": [
        { "key": "dc.title", "value": "ORIGINAL", "language": "en" }
      ]
    },
    {
      "_links": {
         "self": { "href": "/bundles/a469c57a-abcf-45c3-83e4-b187ebd708fd" },
         "items": { "href": "/bundles/a469c57a-abcf-45c3-83e4-b187ebd708fd/items" },
         "bitstreams": {"href": "/bundles/a469c57a-abcf-45c3-83e4-b187ebd708fd/bitstreams"},
         "primaryBitstream": {"href": "/bundles/a469c57a-abcf-45c3-83e4-b187ebd708fd/primaryBitstream"}
      },
      "id": "a469c57a-abcf-45c3-83e4-b187ebd708fd",
      "name": "THUMBNAIL",
      "metadata": [
        { "key": "dc.title", "value": "THUMBNAIL", "language": "en" }
      ]
    },
        {
      "_links": {
             "self": { "href": "/bundles/3-1" },
             "items": { "href": "/bundles/3-1/items" },
             "bitstreams": {"href": "/bundles/3-1/bitstreams"},
             "primaryBitstream": {"href": "/bundles/3-1/primaryBitstreams"}
      },
      "id": "3-1",
      "name": "ORIGINAL",
      "metadata": [
        { "key": "dc.title", "value": "ORIGINAL", "language": "en" }
      ]
    }
  ],
  "page": {
     "size" : 5,
     "totalElements" : 12,
     "totalPages" : 3,
     "number" : 0
  }
}
