{
  "_links": {
       "self": { "href": "/bitstreams{&sort,page,size}", "templated": true },
       "next": { "href": "/bitstreams?page=1&size=5{&sort}", "templated": true },
       "find": { "href": "/bitstreams/{id}", "templated": true }
     },
  "_embedded": [
    {
      "_links": {
             "self": { "href": "/bitstreams/43c57c2b-206f-4645-8c8f-5f10c84b09fa" },
             "bundle": { "href": "/bundles/35e0606d-5e18-4f9c-aa61-74fc751cc3f9" },
             "retrieve": {"href": "/bitstreams/43c57c2b-206f-4645-8c8f-5f10c84b09fa/retrieve"}
      },
      "id": "43c57c2b-206f-4645-8c8f-5f10c84b09fa",
      "name": "do_open_access_CRL.pdf",
      "size": 636626,
      "checksum": {
        "value": "063dfbbbac873aa3fca479b878eccff3",
        "algorithm": "MD5"
      },
      "metadata": [
        { "key": "dc.title", "value": "do_open_access_CRL.pdf", "language": null },
        { "key": "dc.description", "value": "Conference Paper", "language": "en" }
      ],
      "format": "Adobe PDF",
      "mimetype": "application/pdf"
    },
    {
      "_links": {
             "self": { "href": "/bitstreams/1a013ecc-fb25-4689-a44f-f1383ad26632" },
             "bundle": { "href": "/bundles/a469c57a-abcf-45c3-83e4-b187ebd708fd" },
             "retrieve": {"href": "/rest/bitstreams/1a013ecc-fb25-4689-a44f-f1383ad26632/retrieve"}
      },
      "id": "1a013ecc-fb25-4689-a44f-f1383ad26632",
      "name": "do_open_access_CRL.pdf.jpg",
      "size": 41183,
      "checksum": {
          "value": "a8ad475e86f9645c60e13e06f1427814",
          "algorithm": "MD5"
      },
      "metadata": [
        { "key": "dc.title", "value": "do_open_access_CRL.pdf.jpg", "language": null },
        { "key": "dc.description", "value": "Generated Thumbnail", "language": "en" }
      ],
      "format": "JPEG",
      "mimetype": "image/jpeg"      
    },
    {
      "_links": {
             "self": { "href": "/bitstreams/43c57c2b-206f-4645-8c8f-5f10c84b09fa" },
             "bundle": { "href": "/bundles/35e0606d-5e18-4f9c-aa61-74fc751cc3f9" },
             "retrieve": {"href": "/bitstreams/43c57c2b-206f-4645-8c8f-5f10c84b09fa/retrieve"}
      },
      "id": "43c57c2b-206f-4645-8c8f-5f10c84b09fa",
      "name": "another-test-document.pdf",
      "size": 636626,
      "checksum": {
        "value": "063dfbbbac873aa3fca479b878eccff3",
        "algorithm": "MD5"
      },
      "metadata": [
        { "key": "dc.title", "value": "another-test-document.pdf", "language": null },
        { "key": "dc.description", "value": "Conference Paper", "language": "en" }
      ],
      "format": "Adobe PDF",
      "mimetype": "application/pdf"
    },
    {
      "_links": {
             "self": { "href": "/bitstreams/43c57c2b-206f-4645-8c8f-5f10c84b09fa" },
             "bundle": { "href": "/bundles/35e0606d-5e18-4f9c-aa61-74fc751cc3f9" },
             "retrieve": {"href": "/bitstreams/43c57c2b-206f-4645-8c8f-5f10c84b09fa/retrieve"}
      },
      "id": "43c57c2b-206f-4645-8c8f-5f10c84b09fa",
      "name": "another-test-document.pdf.jpg",
      "size": 636626,
      "checksum": {
        "value": "063dfbbbac873aa3fca479b878eccff3",
        "algorithm": "MD5"
      },
      "metadata": [
        { "key": "dc.title", "value": "another-test-document.pdf.jpg", "language": null },
        { "key": "dc.description", "value": "Generated Thumbnail", "language": "en" }
      ],
      "format": "JPEG",
      "mimetype": "image/jpeg"      
    },
    {
      "_links": {
             "self": { "href": "/bitstreams/3-1-1" },
             "bundle": { "href": "/bundles/3-1" },
             "retrieve": {"href": "/bitstreams/3-1-1/retrieve"}
      },
      "id": "3-1-1",
      "name": "scholarly-document-3.pdf",
      "size": 736627,
      "checksum": {
        "value": "15117b282328146ac6afebaa8acd80e7",
        "algorithm": "MD5"
      },
      "metadata": [
        { "key": "dc.title", "value": "scholarly-document-3.pdf", "language": null },
        { "key": "dc.description", "value": "Journal Article", "language": "en" }
      ],
      "format": "Adobe PDF",
      "mimetype": "application/pdf"
    }
  ],
  "page": {
     "size" : 5,
     "totalElements" : 12,
     "totalPages" : 3,
     "number" : 0
  }
}
